tb_bigcount.vcd
$date
	Wed Nov 12 15:57:03 2025
$end
$version
	Icarus Verilog
$end
$timescale
	1ns
$end
$scope module tb_bigcount $end
$var wire 4 ! tmsd [3:0] $end
$var wire 4 " tlsd [3:0] $end
$var reg 1 # tclk $end
$var reg 1 $ tclr $end
$var reg 1 % ten $end
$var reg 1 & tup $end
$scope module dut $end
$var wire 1 # clk $end
$var wire 1 $ clr $end
$var wire 1 % en $end
$var wire 1 ' msden $end
$var wire 1 & up $end
$var wire 1 ( upen $end
$var wire 4 ) msd [3:0] $end
$var wire 4 * lsd [3:0] $end
$var wire 1 + bken $end
$scope module lsdig $end
$var wire 1 + bken $end
$var wire 1 # clk $end
$var wire 1 $ clr $end
$var wire 1 % en $end
$var wire 1 & up $end
$var wire 1 ( upen $end
$var reg 4 , cnt [3:0] $end
$var reg 4 - ncnt [3:0] $end
$upscope $end
$scope module msdig $end
$var wire 1 . bken $end
$var wire 1 # clk $end
$var wire 1 $ clr $end
$var wire 1 ' en $end
$var wire 1 & up $end
$var wire 1 / upen $end
$var reg 4 0 cnt [3:0] $end
$var reg 4 1 ncnt [3:0] $end
$upscope $end
$upscope $end
$upscope $end
$enddefinitions $end
$comment Show the parameter values. $end
$dumpall
$end
#0
$dumpvars
bx 1
bx 0
x/
0.
bx -
bx ,
0+
bx *
bx )
x(
1'
1&
1%
1$
0#
bx "
bx !
$end
#10
0(
0/
b1 -
b1 1
b0 "
b0 *
b0 ,
b0 !
b0 )
b0 0
1#
#20
0#
#30
1#
#40
0'
0#
0$
#50
b10 -
b1 "
b1 *
b1 ,
1#
#60
0#
#70
b11 -
b10 "
b10 *
b10 ,
1#
#80
0#
#90
b100 -
b11 "
b11 *
b11 ,
1#
#100
0#
#110
b101 -
b100 "
b100 *
b100 ,
1#
#120
0#
#130
1'
1(
b0 -
b101 "
b101 *
b101 ,
1#
#140
0#
#150
0'
0(
b10 1
b1 -
b1 !
b1 )
b1 0
b0 "
b0 *
b0 ,
1#
#160
0#
#170
b10 -
b1 "
b1 *
b1 ,
1#
#180
0#
#190
b11 -
b10 "
b10 *
b10 ,
1#
#200
0#
#210
b100 -
b11 "
b11 *
b11 ,
1#
#220
0#
#230
b101 -
b100 "
b100 *
b100 ,
1#
#240
0#
#250
1'
1(
b0 -
b101 "
b101 *
b101 ,
1#
#260
0#
#270
0'
0(
b11 1
b1 -
b10 !
b10 )
b10 0
b0 "
b0 *
b0 ,
1#
#280
0#
#290
b10 -
b1 "
b1 *
b1 ,
1#
#300
b0 -
b1 1
0#
0&
#310
1'
1+
b101 -
b0 "
b0 *
b0 ,
1#
#320
0#
#330
0'
0+
b100 -
b0 1
b101 "
b101 *
b101 ,
b1 !
b1 )
b1 0
1#
#340
0#
#350
b11 -
b100 "
b100 *
b100 ,
1#
#360
0#
#370
b10 -
b11 "
b11 *
b11 ,
1#
#380
0#
#390
b1 -
b10 "
b10 *
b10 ,
1#
#400
0#
#410
b0 -
b1 "
b1 *
b1 ,
1#
#420
0#
#430
1'
1+
b101 -
b0 "
b0 *
b0 ,
1#
#440
0#
#450
0'
0+
0.
b100 -
b1001 1
b101 "
b101 *
b101 ,
b0 !
b0 )
b0 0
1#
#460
0#
#470
b11 -
b100 "
b100 *
b100 ,
1#
#480
0#
#490
b10 -
b11 "
b11 *
b11 ,
1#
#500
0#
#510
b1 -
b10 "
b10 *
b10 ,
1#
#520
0#
#530
b0 -
b1 "
b1 *
b1 ,
1#
#540
0#
#550
1.
1'
1+
b101 -
b0 "
b0 *
b0 ,
1#
#560
0#
#570
0'
0+
0.
b100 -
b1000 1
b101 "
b101 *
b101 ,
b1001 !
b1001 )
b1001 0
1#
#580
0#
#590
b11 -
b100 "
b100 *
b100 ,
1#
#600
0#
#610
b10 -
b11 "
b11 *
b11 ,
1#
#620
0#
#630
b1 -
b10 "
b10 *
b10 ,
1#
#640
0#
#650
b0 -
b1 "
b1 *
b1 ,
1#
#660
0#
#670
1'
1+
b101 -
b0 "
b0 *
b0 ,
1#
#680
0#
#690
0'
0+
b100 -
b111 1
b101 "
b101 *
b101 ,
b1000 !
b1000 )
b1000 0
1#
#700
0#
#710
b11 -
b100 "
b100 *
b100 ,
1#
#720
0#
#730
b10 -
b11 "
b11 *
b11 ,
1#
#740
0#
#750
b1 -
b10 "
b10 *
b10 ,
1#
#760
0#
#770
b0 -
b1 "
b1 *
b1 ,
1#
#780
0#
#790
1'
1+
b101 -
b0 "
b0 *
b0 ,
1#
