test_controller.vcd
$date
	Wed Nov 19 15:48:09 2025
$end
$version
	Icarus Verilog
$end
$timescale
	1ps
$end
$scope module tb_controller $end
$var wire 1 ! manualTrigger $end
$var wire 1 " up $end
$var wire 1 # resetCount $end
$var wire 1 $ enable $end
$var reg 1 % clk $end
$var reg 1 & clr $end
$var reg 1 ' countDown $end
$var reg 1 ( lap $end
$var reg 1 ) reset $end
$var reg 1 * start $end
$var reg 1 + stop $end
$var reg 1 , timeSet $end
$scope module test_Controller $end
$var wire 1 % clk $end
$var wire 1 & clr $end
$var wire 1 ' countDown $end
$var wire 1 $ enable $end
$var wire 1 ( lap $end
$var wire 1 ! manualTrigger $end
$var wire 1 ) reset $end
$var wire 1 * start $end
$var wire 1 + stop $end
$var wire 1 , timeSet $end
$var wire 1 " up $end
$var wire 1 # resetCount $end
$var parameter 3 - CntDwn $end
$var parameter 3 . CntUp $end
$var parameter 3 / HoldDisp $end
$var parameter 3 0 Zero $end
$var reg 3 1 nextState [2:0] $end
$var reg 3 2 presentState [2:0] $end
$upscope $end
$upscope $end
$enddefinitions $end
$comment Show the parameter values. $end
$dumpall
b0 0
b11 /
b1 .
b10 -
$end
#0
$dumpvars
b0 2
b0 1
0,
0+
0*
0)
0(
0'
0&
0%
0$
1#
0"
0!
$end
#5000
1%
#10000
0%
1)
#15000
1%
#20000
0%
#25000
1%
#30000
0%
#35000
1%
#40000
b1 1
0%
1*
#45000
1$
1"
0#
b1 2
1%
#50000
0%
0*
#55000
1%
#60000
0%
1'
#65000
1%
#70000
b11 1
0%
1+
#75000
0$
0"
b11 2
1%
#80000
0%
0+
#85000
1%
#90000
b10 1
0%
1*
#95000
1$
b10 2
1%
#100000
0%
0*
#105000
1%
#110000
0%
#115000
1%
#120000
0%
#125000
1%
#130000
0%
1&
#135000
1%
#140000
0%
0&
#145000
1%
#150000
0%
1*
#155000
1%
#160000
0$
1#
b0 2
0%
0*
0)
#165000
1%
#170000
0%
#175000
1%
#180000
0%
1)
#185000
1$
0#
b10 2
1%
#190000
0%
#195000
1%
#200000
b11 1
0%
1+
#205000
0$
b11 2
1%
#210000
b0 1
0%
1&
#215000
1#
b0 2
1%
